sso代理验证
#***************************************************
app-expand.properties新增sso代理3个参数
##代理服务是否开启
sso.proxy.enable=true
##代理请求地址默认为app/login/login.htm 不进行配置
##代理请求标示符
sso.proxy.code=AuthCode
##代理服务地址
sso.proxy.url=http://localhost:8081/kbase-sync/login.sso

#***************************************************
样例为：
http://localhost:8771/kbase-core/app/login/login.htm?AuthCode=52a05067df40c2f980b0128563ee5213f22cc239ca064dfcbe3dd6bac3746efc53bafd31b7ebcf4d681e1b7b470a210d761efe51acceca24aa4021d710015669e834c9595ab42cc4
